^C:\USERS\BELLCHAN\DOCUMENTS\VISUAL STUDIO 2013\PROJECTS\WIN32PROJECT2\WIN32PROJECT2\DEBUG\SOURCE.OBJ
/OUT:"C:\USERS\BELLCHAN\DOCUMENTS\VISUAL STUDIO 2013\PROJECTS\WIN32PROJECT2\DEBUG\WIN32PROJECT2.EXE" /INCREMENTAL /NOLOGO /LIBPATH:"D:\OpenGL Nelzkie\Pre compiled binaries\glew-1.13.0-win32\glew-1.13.0\lib\Release\Win32" /LIBPATH:"D:\OpenGL Nelzkie\Pre compiled binaries\glfw-3.1.1.bin.WIN32\glfw-3.1.1.bin.WIN32\lib-vc2013" opengl32.lib glfw3.lib glew32s.lib kernel32.lib user32.lib gdi32.lib winspool.lib comdlg32.lib advapi32.lib shell32.lib ole32.lib oleaut32.lib uuid.lib odbc32.lib odbccp32.lib /MANIFEST /MANIFESTUAC:"level='asInvoker' uiAccess='false'" /manifest:embed /DEBUG /PDB:"C:\USERS\BELLCHAN\DOCUMENTS\VISUAL STUDIO 2013\PROJECTS\WIN32PROJECT2\DEBUG\WIN32PROJECT2.PDB" /SUBSYSTEM:CONSOLE /TLBID:1 /DYNAMICBASE /NXCOMPAT /IMPLIB:"C:\USERS\BELLCHAN\DOCUMENTS\VISUAL STUDIO 2013\PROJECTS\WIN32PROJECT2\DEBUG\WIN32PROJECT2.LIB" /MACHINE:X86 DEBUG\SOURCE.OBJ
^D:\OPENGL NELZKIE\GETTING STARTED\HELLO TRIANGLE\WIN32PROJECT2\DEBUG\SOURCE.OBJ
/OUT:"D:\OPENGL NELZKIE\GETTING STARTED\HELLO TRIANGLE\DEBUG\WIN32PROJECT2.EXE" /INCREMENTAL /NOLOGO /LIBPATH:"D:\OpenGL Nelzkie\Pre compiled binaries\glew-1.13.0-win32\glew-1.13.0\lib\Release\Win32" /LIBPATH:"D:\OpenGL Nelzkie\Pre compiled binaries\glfw-3.1.1.bin.WIN32\glfw-3.1.1.bin.WIN32\lib-vc2013" opengl32.lib glfw3.lib glew32s.lib kernel32.lib user32.lib gdi32.lib winspool.lib comdlg32.lib advapi32.lib shell32.lib ole32.lib oleaut32.lib uuid.lib odbc32.lib odbccp32.lib /MANIFEST /MANIFESTUAC:"level='asInvoker' uiAccess='false'" /manifest:embed /DEBUG /PDB:"D:\OPENGL NELZKIE\GETTING STARTED\HELLO TRIANGLE\DEBUG\WIN32PROJECT2.PDB" /SUBSYSTEM:CONSOLE /TLBID:1 /DYNAMICBASE /NXCOMPAT /IMPLIB:"D:\OPENGL NELZKIE\GETTING STARTED\HELLO TRIANGLE\DEBUG\WIN32PROJECT2.LIB" /MACHINE:X86 DEBUG\SOURCE.OBJ
